--
-- Copyright 2024 ÚHÚL
--
-- Licensed under the EUPL, Version 1.2 or – as soon they will be approved by the European Commission - subsequent versions of the EUPL (the "Licence");
-- You may not use this work except in compliance with the Licence.
-- You may obtain a copy of the Licence at:
--
-- https://joinup.ec.europa.eu/software/page/eupl
--
-- Unless required by applicable law or agreed to in writing, software distributed under the Licence is distributed on an "AS IS" basis,
-- WITHOUT WARRANTIES OR CONDITIONS OF ANY KIND, either express or implied.
-- See the Licence for the specific language governing permissions and limitations under the Licence.
--
-- DATA DISCLAIMER
-- Any results produced on the basis of openly published Czech National Forest Inventory (CZNFI) sample data
-- do not reflect the true status or changes within any geographical area of the Czech Republic,
-- at, during or between any time occasion(s).
-- In particular, any such results must not be presented or interpreted as an alternative to any information published by CZNFI,
-- be it a past or future CZNFI publication.
--
COPY analytical.t_deadwood (id, nfi_grid, nfi_cycle, plots_field_data, deadwood, fid, note, accessibility, fao_landuse, transect_segment, factor, version, time_span, time_span_next, pid, status, time_span_nominal, time_span_nominal_next) FROM stdin;
--
-- PostgreSQL database dump complete
--
